distance,length,size
2813.64,6052.05, ∞
2831.81,5896.12, ∞
2875.93,5820.71, ∞
2892,5819.19, ∞
2895.12,5774.71, ∞
2899.09,5614.29, ∞
2917.26,5458.36, ∞
2961.38,5382.95, ∞
2977.45,5381.43, ∞
2980.57,5336.95, ∞
2984.88,5227.31, ∞
3014.86,5170.76, ∞
3018.18,5083.8, ∞
3062.3,5008.39, ∞
3112.87,4962.48, ∞
3125.82,4906.05, ∞
3134.67,4853.05, ∞
3167.97,4709.54, ∞
3212.09,4634.13, ∞
3316.52,4594.19, ∞
3428.29,4588.02, ∞
3481.75,4574.72, ∞
2813.64, 6052.05, 10 without selection
2831.81, 5896.12, 10 without selection
2892, 5819.19, 10 without selection
2917.26, 5458.36, 10 without selection
2977.45, 5381.43, 10 without selection
2980.57, 5336.95, 10 without selection
3014.86, 5170.76, 10 without selection
3068.75, 5037.89, 10 without selection
3134.67, 4853.05, 10 without selection
3178.79, 4777.64, 10 without selection
2813.64,6052.05, 10 with selection
2831.81,5896.12, 10 with selection
2899.09,5614.29, 10 with selection
2917.26,5458.36, 10 with selection
2984.88,5227.31, 10 with selection
3018.18,5083.8, 10 with selection
3212.09,4634.13, 10 with selection
3316.52,4594.19, 10 with selection
3428.29,4588.02, 10 with selection
3481.75,4574.72, 10 with selection